[
  {
    "date": "09 January",
    "title": "Introduction",
    "summary": "In this class I'll introduce myself and the course.",
    "slides": {
      "pdf": "/slides/01-Introduction.pdf",
      "pptx": "/slides/01-Introduction.pptx"
    },
    "examples": {
      "Syllabus": "/syllabus"
    }
  },

]
